{
  "cafes": [
    {
      "name": "Hobokense Polder",
      "lat": 51.189999,
      "long": 4.348711,
      "neighborhood": "Zuid",
      "comments": "Aangenaam en rustig wandelen"
    },
    {
      "name": "Kiel Park",
      "lat": 51.192060,
      "long": 4.383325,
      "neighborhood": "Zuid",
      "comments": "Onbekend stukje Antwerpen"
    },
    {
      "name": "Stadspark",
      "lat": 51.211626,
      "long": 4.415164,
      "neighborhood": "Centrum",
      "comments": "Droge vijver, skatepark, IJskar"
    },
    {
      "name": "Rivierenhof",
      "lat": 51.215956,
      "long": 4.466516,
      "neighborhood": "Noord",
      "comments": "Mooie vijvers, leuk om te joggen, OLT"
    },
    {
      "name": "Park Spoor Noord",
      "lat": 51.230428,
      "long": 4.425157,
      "neighborhood": "Noord",
      "comments": "Sporten en leuk hangen in de zomer"
    },
    {
      "name": "Koning Albertpark",
      "lat": 51.200750,
      "long": 4.412624,
      "neighborhood": "Centrum",
      "comments": "Beter bekend als Harmoniepark"
    },
    {
      "name": "Nachtegalenpark",
      "lat": 51.186267,
      "long": 4.411160,
      "neighborhood": "Zuid",
      "comments": "Aangenaam wandelen, leuke speeltuin"
    }
  ]
}